<svg width="162" height="130" viewBox="0 0 162 130" fill="none" xmlns="http://www.w3.org/2000/svg">
<path d="M139.175 77.0546H61.8945V88.5714H139.175V77.0546Z" fill="#8D8CF2"/>
<path d="M61.8951 52.0996H55.4551V110.06H61.8951V52.0996Z" stroke="#010066" stroke-width="3" stroke-linejoin="round"/>
<path d="M145.615 52.0996H139.175V110.06H145.615V52.0996Z" stroke="#010066" stroke-width="3" stroke-linejoin="round"/>
<path d="M139.175 101.462C114.093 93.1008 86.976 93.1008 61.8945 101.462V88.5823H139.175V101.462Z" stroke="#010066" stroke-width="3" stroke-linejoin="round"/>
<path d="M130.588 62.8221V88.5821" stroke="#010066" stroke-width="3" stroke-linejoin="round"/>
<path d="M122.001 62.8221V88.5821" stroke="#010066" stroke-width="3" stroke-linejoin="round"/>
<path d="M113.415 62.8221V88.5821" stroke="#010066" stroke-width="3" stroke-linejoin="round"/>
<path d="M104.828 62.8221V88.5821" stroke="#010066" stroke-width="3" stroke-linejoin="round"/>
<path d="M96.2412 62.8221V88.5821" stroke="#010066" stroke-width="3" stroke-linejoin="round"/>
<path d="M87.6543 62.8221V88.5821" stroke="#010066" stroke-width="3" stroke-linejoin="round"/>
<path d="M79.0684 62.8221V88.5821" stroke="#010066" stroke-width="3" stroke-linejoin="round"/>
<path d="M70.4814 62.8221V88.5821" stroke="#010066" stroke-width="3" stroke-linejoin="round"/>
<path d="M139.175 62.8221H61.8945" stroke="#010066" stroke-width="3" stroke-linejoin="round"/>
<path d="M142.395 52.0997V19.8997H104.828V41.7527" stroke="#010066" stroke-width="3" stroke-linecap="round" stroke-linejoin="round"/>
<path d="M42.1457 46.9369H16.3857L20.6791 25.4595H37.8524L42.1457 46.9369Z" fill="#8D8CF2"/>
<path d="M42.1457 41.3663H16.3857L20.6791 19.8997H37.8524L42.1457 41.3663Z" stroke="#010066" stroke-width="3" stroke-linejoin="round"/>
<path d="M35.7052 50.8438H22.8252V72.3104H35.7052V50.8438Z" stroke="#010066" stroke-width="3" stroke-linejoin="round"/>
<path d="M29.2656 41.7527V61.5771" stroke="#010066" stroke-width="3" stroke-linejoin="round"/>
<path d="M92.5062 46.1748L89.8551 47.6453L90.3596 44.5326L88.2129 42.3323L91.1753 41.8815L92.5062 39.0586L93.8372 41.8815L96.7996 42.3323L94.6529 44.5326L95.1574 47.6453L92.5062 46.1748Z" fill="#010066"/>
<path d="M104.828 53.334L102.166 54.8044L102.681 51.6918L100.534 49.4914L103.497 49.0406L104.828 46.2178L106.148 49.0406L109.121 49.4914L106.974 51.6918L107.479 54.8044L104.828 53.334Z" fill="#010066"/>
<path d="M117.139 46.1748L114.488 47.6453L114.992 44.5326L112.846 42.3323L115.819 41.8815L117.139 39.0586L118.47 41.8815L121.432 42.3323L119.286 44.5326L119.801 47.6453L117.139 46.1748Z" fill="#010066"/>
</svg>
